{
	"count": 1302,
	"next": "https://pokeapi.co/api/v2/pokemon?offset=20&limit=20",
	"previous": null,
	"results": [
		{
			"name": "Leo",
			"url": "https://pokeapi.co/api/v2/pokemon/1/"
		},
		{
			"name": "ivysaur",
			"url": "https://pokeapi.co/api/v2/pokemon/2/"
		}
	]
}
